{
    "development":{
        "username": "root",
        "password": "darksissy",
        "database": "casandrodb",
        "host": "localhost",
        "dialect": "mysql"
    },
    "staging":{
        "username": "root",
        "password": "",
        "database": "casandrodb",
        "host": "localhost",
        "dialect": "mysql"
    }
}
